{
    "plugins": [
      "edit-link",
      "toggle-chapters",
      "page-toc"
    ],
    "pluginsConfig": {
        "edit-link": {
            "base": "https://framagit.org/framasoft/framacloud/blob/master/",
            "label": {
                "en": "Edit This Page",
                "fr": "Modifier cette page"
            }
        }
    }
}